{
    "KPlugin": {
        "Authors": [
            {
                "Email": "Jason@zx2c4.com",
                "Name": "Jason A. Donenfeld",
                "Name[ar]": "Jason A. Donenfeld",
                "Name[az]": "Jason A. Donenfeld",
                "Name[bg]": "Jason A. Donenfeld",
                "Name[ca@valencia]": "Jason A. Donenfeld",
                "Name[ca]": "Jason A. Donenfeld",
                "Name[cs]": "Jason A. Donenfeld",
                "Name[de]": "Jason A. Donenfeld",
                "Name[en_GB]": "Jason A. Donenfeld",
                "Name[eo]": "Jason A. Donenfeld",
                "Name[es]": "Jason A. Donenfeld",
                "Name[eu]": "Jason A. Donenfeld",
                "Name[fi]": "Jason A. Donenfeld",
                "Name[fr]": "Jason A. Donenfeld",
                "Name[gl]": "Jason A. Donenfeld",
                "Name[he]": "ג׳ייסון א. דונפלד",
                "Name[hu]": "Jason A. Donenfeld",
                "Name[ia]": "Jason A. Donenfeld",
                "Name[id]": "Jason A. Donenfeld",
                "Name[is]": "Jason A. Donenfeld",
                "Name[it]": "Jason A. Donenfeld",
                "Name[ja]": "Jason A. Donenfeld",
                "Name[ka]": "Jason A. Donenfeld",
                "Name[ko]": "Jason A. Donenfeld",
                "Name[lt]": "Jason A. Donenfeld",
                "Name[nl]": "Jason A. Donenfeld",
                "Name[nn]": "Jason A. Donenfeld",
                "Name[pl]": "Jason A. Donenfeld",
                "Name[pt]": "Jason A. Donenfeld",
                "Name[pt_BR]": "Jason A. Donenfeld",
                "Name[ro]": "Jason A. Donenfeld",
                "Name[ru]": "Jason A. Donenfeld",
                "Name[sk]": "Jason A. Donenfeld",
                "Name[sl]": "Jason A. Donenfeld",
                "Name[sv]": "Jason A. Donenfeld",
                "Name[tr]": "Jason A. Donenfeld",
                "Name[uk]": "Jason A. Donenfeld",
                "Name[vi]": "Jason A. Donenfeld",
                "Name[x-test]": "xxJason A. Donenfeldxx",
                "Name[zh_CN]": "Jason A. Donenfeld",
                "Name[zh_TW]": "Jason A. Donenfeld"
            }
        ],
        "Description": "Define words",
        "Description[ar]": "تعريف الكلمات",
        "Description[az]": "Sözlərin tanınması",
        "Description[bg]": "Дефиниране на думи",
        "Description[ca@valencia]": "Definix mots",
        "Description[ca]": "Defineix mots",
        "Description[cs]": "Definujte slova",
        "Description[de]": "Wörter definieren",
        "Description[en_GB]": "Define words",
        "Description[eo]": "Difini vortojn",
        "Description[es]": "Definir palabras",
        "Description[eu]": "Hitzak definitzea",
        "Description[fi]": "Määrittele sanoja",
        "Description[fr]": "Définir des mots",
        "Description[gl]": "Definir palabras.",
        "Description[he]": "הגדרת מילים",
        "Description[hu]": "Szavak meghatározása",
        "Description[ia]": "Define parolas",
        "Description[id]": "Tentukan kata",
        "Description[is]": "Skilgreina orð",
        "Description[it]": "Definizione delle parole",
        "Description[ja]": "単語を定義",
        "Description[ka]": "აღწერეთ სიტყვები",
        "Description[ko]": "단어 정의",
        "Description[lt]": "Apibrėžti žodžius",
        "Description[nl]": "Woorden definiëren",
        "Description[nn]": "Definer ord",
        "Description[pl]": "Zawiera wyjaśnienia słów",
        "Description[pt]": "Definir as palavras",
        "Description[pt_BR]": "Definição de palavras",
        "Description[ro]": "Definește cuvinte",
        "Description[ru]": "Определение слов",
        "Description[sk]": "Definujte slová",
        "Description[sl]": "Določi besede",
        "Description[sv]": "Definiera ord",
        "Description[tr]": "Sözcükleri tanımla",
        "Description[uk]": "Визначення термінів",
        "Description[vi]": "Định nghĩa từ",
        "Description[x-test]": "xxDefine wordsxx",
        "Description[zh_CN]": "查找单词含义",
        "Description[zh_TW]": "查詢詞彙定義",
        "EnabledByDefault": true,
        "Icon": "accessories-dictionary",
        "License": "LGPL",
        "Name": "Dictionary",
        "Name[ar]": "قاموس",
        "Name[ast]": "Diccionariu",
        "Name[az]": "Lüğət",
        "Name[bg]": "Речник",
        "Name[ca@valencia]": "Diccionari",
        "Name[ca]": "Diccionari",
        "Name[cs]": "Slovník",
        "Name[de]": "Wörterbuch",
        "Name[en_GB]": "Dictionary",
        "Name[eo]": "Vortaro",
        "Name[es]": "Diccionario",
        "Name[eu]": "Hiztegia",
        "Name[fi]": "Sanakirja",
        "Name[fr]": "Dictionnaire",
        "Name[gl]": "Dicionario",
        "Name[he]": "מילון",
        "Name[hu]": "Szótár",
        "Name[ia]": "Dictionario",
        "Name[id]": "Kamus",
        "Name[is]": "Orðasafn",
        "Name[it]": "Dizionario",
        "Name[ja]": "辞書",
        "Name[ka]": "ლექსიკონი",
        "Name[ko]": "사전",
        "Name[lt]": "Žodynas",
        "Name[nl]": "Woordenboek",
        "Name[nn]": "Ord­bok",
        "Name[pl]": "Słownik",
        "Name[pt]": "Dicionário",
        "Name[pt_BR]": "Dicionário",
        "Name[ro]": "Dicționar",
        "Name[ru]": "Словарь",
        "Name[sk]": "Slovník",
        "Name[sl]": "Slovar",
        "Name[sv]": "Ordlista",
        "Name[tr]": "Sözlük",
        "Name[uk]": "Словник",
        "Name[vi]": "Từ điển",
        "Name[x-test]": "xxDictionaryxx",
        "Name[zh_CN]": "词典",
        "Name[zh_TW]": "字典"
    },
    "X-KDE-ConfigModule": "kf6/krunner/kcms/kcm_krunner_dictionary"
}
